<svg xmlns="http://www.w3.org/2000/svg" xmlns:xlink="http://www.w3.org/1999/xlink" width="35" height="35" viewBox="0 0 35 35">
  <defs>
    <clipPath id="clip-path">
      <rect id="Rectangle_13" data-name="Rectangle 13" width="35" height="35" transform="translate(0)" fill="#82c55b"/>
    </clipPath>
  </defs>
  <g id="Mask_Group_1" data-name="Mask Group 1" transform="translate(0)" clip-path="url(#clip-path)">
    <g id="umbrella" transform="translate(0)">
      <g id="Group_38" data-name="Group 38">
        <path id="Path_21" data-name="Path 21" d="M34.515,15.673a1.367,1.367,0,0,0-2.657.646,14.268,14.268,0,0,1,.291,1.581,16.615,16.615,0,0,0-3.575-.4,14.268,14.268,0,0,0-3.947.744,24.123,24.123,0,0,0-3.8-12.494,14.523,14.523,0,0,1,8.615,5.463,1.367,1.367,0,0,0,2.184-1.645,17.253,17.253,0,0,0-6.094-5.043,18.074,18.074,0,0,0-6.665-1.809V1.367a1.367,1.367,0,0,0-2.734,0V2.716A17.578,17.578,0,0,0,5.143,7.57,16.778,16.778,0,0,0,0,19.756,1.367,1.367,0,0,0,1.911,21.01a12.409,12.409,0,0,1,4.378-.776,17.072,17.072,0,0,1,4.865,1.19,1.363,1.363,0,0,0,1.051.008l.008,0,.006,0q.052-.022.1-.048a12.772,12.772,0,0,1,3.812-1.062V30.9a1.369,1.369,0,0,1-1.367,1.367,1.4,1.4,0,0,1-1.367-1.4,1.367,1.367,0,0,0-2.734,0,4.1,4.1,0,1,0,8.2.032V20.317a12.787,12.787,0,0,1,3.806,1.059,1.37,1.37,0,0,0,1.187.042,15.76,15.76,0,0,1,4.714-1.184,13.632,13.632,0,0,1,4.544.788A1.367,1.367,0,0,0,35,19.756,17.286,17.286,0,0,0,34.515,15.673ZM10.372,18.26a15.065,15.065,0,0,0-4.083-.76,15.82,15.82,0,0,0-3.435.382A14.29,14.29,0,0,1,14.172,5.752,24.134,24.134,0,0,0,10.372,18.26ZM17.5,17.5a15.4,15.4,0,0,0-4.383.663A22.677,22.677,0,0,1,15.7,8.492a13.928,13.928,0,0,1,1.8-2.568,13.812,13.812,0,0,1,1.715,2.415,22.514,22.514,0,0,1,2.666,9.824A15.4,15.4,0,0,0,17.5,17.5Z" fill="#82c55b"/>
      </g>
    </g>
  </g>
</svg>
