<svg xmlns="http://www.w3.org/2000/svg" width="20" height="24.976" viewBox="0 0 20 24.976">
  <g id="pin" transform="translate(-51.003)" opacity="0.8">
    <g id="Group_4" data-name="Group 4" transform="translate(57.585 5.539)">
      <g id="Group_3" data-name="Group 3" transform="translate(0)">
        <path id="Path_3" data-name="Path 3" d="M134.418,80a3.418,3.418,0,1,0,.937,6.706.547.547,0,1,0-.3-1.052,2.321,2.321,0,1,1,1.589-1.567.547.547,0,1,0,1.048.314,3.42,3.42,0,0,0-3.274-4.4Z" transform="translate(-131 -80)" fill="#fff"/>
      </g>
    </g>
    <g id="Group_6" data-name="Group 6" transform="translate(51.003)">
      <g id="Group_5" data-name="Group 5" transform="translate(0)">
        <path id="Path_4" data-name="Path 4" d="M68.07,2.925A10,10,0,0,0,51,9.991a10.449,10.449,0,0,0,1.651,5.576,29.7,29.7,0,0,0,3.528,4.378,33.3,33.3,0,0,1,3.7,4.576.976.976,0,0,0,.825.454H61.3a.976.976,0,0,0,.825-.454,33.3,33.3,0,0,1,3.7-4.576,29.7,29.7,0,0,0,3.528-4.378A10.45,10.45,0,0,0,71,9.988,9.935,9.935,0,0,0,68.07,2.925Zm-3.687,15.7A40.212,40.212,0,0,0,61,22.68a40.2,40.2,0,0,0-3.38-4.051c-2.5-2.742-4.665-5.109-4.669-8.639a8.049,8.049,0,0,1,16.1,0C69.048,13.52,66.886,15.888,64.383,18.629Z" transform="translate(-51.003)" fill="#fff"/>
      </g>
    </g>
  </g>
</svg>
