<svg id="user" xmlns="http://www.w3.org/2000/svg" width="32" height="32" viewBox="0 0 32 32">
  <g id="user-2" data-name="user" opacity="0.8">
    <g id="Group_7" data-name="Group 7" transform="translate(0)">
      <path id="Path_5" data-name="Path 5" d="M31.919,27.42a1.25,1.25,0,0,0-2.448.51,1.306,1.306,0,0,1-.265,1.095,1.27,1.27,0,0,1-1,.475H3.794a1.27,1.27,0,0,1-1-.475,1.306,1.306,0,0,1-.265-1.095,13.811,13.811,0,0,1,13.14-10.936Q15.834,17,16,17t.333-.006a13.751,13.751,0,0,1,11.105,6.1,1.25,1.25,0,1,0,2.076-1.392,16.259,16.259,0,0,0-8.425-6.4,8.5,8.5,0,1,0-10.175,0A16.258,16.258,0,0,0,.081,27.42,3.8,3.8,0,0,0,3.794,32H28.207a3.8,3.8,0,0,0,3.712-4.58ZM10,8.5a6,6,0,1,1,6.3,5.992l-.3,0-.3,0A6.007,6.007,0,0,1,10,8.5Z" transform="translate(0)" fill="#fff"/>
    </g>
  </g>
</svg>
